TestBenches/MEM32/rom.vcd
$timescale 1 us $end
$var wire 13 ! addr $end
$var wire 1 " i_clk $end
$var wire 1 # i_rst $end
$var wire 13 $ i_wb_addr $end
$var wire 1 % i_wb_cyc $end
$var wire 32 & i_wb_dat $end
$var wire 4 ' i_wb_sel $end
$var wire 1 ( i_wb_stb $end
$var wire 1 ) i_wb_we $end
$var reg 1 * o_wb_ack $end
$var wire 32 + o_wb_dat $end
$enddefinitions $end
#0
b0000000000000 !
0"
0#
b0000000000000 $
0%
b00000000000000000000000000000000 &
b0000 '
0(
0)
0*
b00000000000000010000000100010111 +
#0
1%
1(
#1
1"
#2
0"
#3
1"
#4
b0000000000001 !
0"
b0000000000100 $
b11111110000000010000000100010011 +
#5
1"
#6
0"
#7
1"
#8
b0000000000010 !
0"
b0000000001000 $
b00000000000000000000000010010111 +
#9
1"
#10
0"
#11
1"
#12
b0000000000011 !
0"
b0000000001100 $
b00000001000000001000000011100111 +
#13
1"
#14
0"
#15
1"
#16
b0000000000100 !
0"
b0000000010000 $
b00000000000000000000000001101111 +
#17
1"
#18
0"
#19
1"
#20
b0000000000101 !
0"
b0000000010100 $
b00000000000000000000000000000000 +
#21
1"
#22
0"
#23
1"
#24
b0000000000110 !
0"
b0000000011000 $
b00010001000000000000100000110111 +
#25
1"
#26
0"
#27
1"
#28
b0000000000111 !
0"
b0000000011100 $
b00010001000011000000010110110111 +
#29
1"
#30
0"
#31
1"
#32
b0000000001000 !
0"
b0000000100000 $
b00010001000010000000011000110111 +
#33
1"
#34
0"
#35
1"
#36
b0000000001001 !
0"
b0000000100100 $
b11111111111100000000011100010011 +
#37
1"
#38
0"
#39
1"
#40
b0000000001010 !
0"
b0000000101000 $
b00000000000000000000000010010111 +
#41
1"
#42
0"
#43
1"
#44
b0000000001011 !
0"
b0000000101100 $
b00011100100000001000000011100111 +
#45
1"
#46
0"
#47
1"
#48
b0000000001100 !
0"
b0000000110000 $
b00011111010000000000111111101111 +
#49
1"
#50
0"
#51
1"
#52
b0000000001101 !
0"
b0000000110100 $
b00000000000000000000000010010111 +
#53
1"
#54
0"
#55
1"
#56
b0000000001110 !
0"
b0000000111000 $
b00011011110000001000000011100111 +
#57
1"
#58
0"
#59
1"
#60
b0000000001111 !
0"
b0000000111100 $
b01000100010000000000111111101111 +
#61
1"
#62
0"
#63
1"
#64
b0000000010000 !
0"
b0000001000000 $
b00000000000000000000000010010111 +
#65
1"
#66
0"
#67
1"
#68
b0000000010001 !
0"
b0000001000100 $
b00011011000000001000000011100111 +
#69
1"
#70
0"
#71
1"
#72
b0000000010010 !
0"
b0000001001000 $
b01100110110000000000111111101111 +
#73
1"
#74
0"
#75
1"
#76
b0000000010011 !
0"
b0000001001100 $
b00000000000000000000000010010111 +
#77
1"
#78
0"
#79
1"
#80
b0000000010100 !
0"
b0000001010000 $
b00011010010000001000000011100111 +
#81
1"
#82
0"
#83
1"
#84
b0000000010101 !
0"
b0000001010100 $
b01111001010000000000111111101111 +
#85
1"
#86
0"
#87
1"
#88
b0000000010110 !
0"
b0000001011000 $
b00000000000000000000000010010111 +
#89
1"
#90
0"
#91
1"
#92
b0000000010111 !
0"
b0000001011100 $
b00011001100000001000000011100111 +
#93
1"
#94
0"
#95
1"
#96
b0000000011000 !
0"
b0000001100000 $
b00001100000100000000111111101111 +
#97
1"
#98
0"
#99
1"
#100
b0000000011001 !
0"
b0000001100100 $
b00000000000000000000000010010111 +
#101
1"
#102
0"
#103
1"
#104
b0000000011010 !
0"
b0000001101000 $
b00011000110000001000000011100111 +
#105
1"
#106
0"
#107
1"
#108
b0000000011011 !
0"
b0000001101100 $
b00011110100100000000111111101111 +
#109
1"
#110
0"
#111
1"
#112
b0000000011100 !
0"
b0000001110000 $
b00000000000000000000000010010111 +
#113
1"
#114
0"
#115
1"
#116
b0000000011101 !
0"
b0000001110100 $
b00011000000000001000000011100111 +
#117
1"
#118
0"
#119
1"
#120
b0000000011110 !
0"
b0000001111000 $
b01001000010100000000111111101111 +
#121
1"
#122
0"
#123
1"
#124
b0000000011111 !
0"
b0000001111100 $
b00000000000000000000000010010111 +
#125
1"
#126
0"
#127
1"
#128
b0000000100000 !
0"
b0000010000000 $
b00010111010000001000000011100111 +
#129
1"
#130
0"
#131
1"
#132
b0000000100001 !
0"
b0000010000100 $
b01101110100100000000111111101111 +
#133
1"
#134
0"
#135
1"
#136
b0000000100010 !
0"
b0000010001000 $
b00000000000000000000000010010111 +
#137
1"
#138
0"
#139
1"
#140
b0000000100011 !
0"
b0000010001100 $
b00010110100000001000000011100111 +
#141
1"
#142
0"
#143
1"
#144
b0000000100100 !
0"
b0000010010000 $
b00011110000000000001111111101111 +
#145
1"
#146
0"
#147
1"
#148
b0000000100101 !
0"
b0000010010100 $
b00000000000000000000000010010111 +
#149
1"
#150
0"
#151
1"
#152
b0000000100110 !
0"
b0000010011000 $
b00010101110000001000000011100111 +
#153
1"
#154
0"
#155
1"
#156
b0000000100111 !
0"
b0000010011100 $
b01000011100000000001111111101111 +
#157
1"
#158
0"
#159
1"
#160
b0000000101000 !
0"
b0000010100000 $
b00000000000000000000000010010111 +
#161
1"
#162
0"
#163
1"
#164
b0000000101001 !
0"
b0000010100100 $
b00010101000000001000000011100111 +
#165
1"
#166
0"
#167
1"
#168
b0000000101010 !
0"
b0000010101000 $
b01101001000000000001111111101111 +
#169
1"
#170
0"
#171
1"
#172
b0000000101011 !
0"
b0000010101100 $
b00000000000000000000000010010111 +
#173
1"
#174
0"
#175
1"
#176
b0000000101100 !
0"
b0000010110000 $
b00010100010000001000000011100111 +
#177
1"
#178
0"
#179
1"
#180
b0000000101101 !
0"
b0000010110100 $
b00001011010100000001111111101111 +
#181
1"
#182
0"
#183
1"
#184
b0000000101110 !
0"
b0000010111000 $
b00000000000000000000000010010111 +
#185
1"
#186
0"
#187
1"
#188
b0000000101111 !
0"
b0000010111100 $
b00010011100000001000000011100111 +
#189
1"
#190
0"
#191
1"
#192
b0000000110000 !
0"
b0000011000000 $
b00010110110100000001111111101111 +
#193
1"
#194
0"
#195
1"
#196
b0000000110001 !
0"
b0000011000100 $
b00000000000000000000000010010111 +
#197
1"
#198
0"
#199
1"
#200
b0000000110010 !
0"
b0000011001000 $
b00010010110000001000000011100111 +
#201
1"
#202
0"
#203
1"
#204
b0000000110011 !
0"
b0000011001100 $
b00100011000100000001111111101111 +
#205
1"
#206
0"
#207
1"
#208
b0000000110100 !
0"
b0000011010000 $
b00000000000000000000000010010111 +
#209
1"
#210
0"
#211
1"
#212
b0000000110101 !
0"
b0000011010100 $
b00010010000000001000000011100111 +
#213
1"
#214
0"
#215
1"
#216
b0000000110110 !
0"
b0000011011000 $
b00101111100100000001111111101111 +
#217
1"
#218
0"
#219
1"
#220
b0000000110111 !
0"
b0000011011100 $
b00000000000000000000000010010111 +
#221
1"
#222
0"
#223
1"
#224
b0000000111000 !
0"
b0000011100000 $
b00010001010000001000000011100111 +
#225
1"
#226
0"
#227
1"
#228
b0000000111001 !
0"
b0000011100100 $
b01001111100100000001111111101111 +
#229
1"
#230
0"
#231
1"
#232
b0000000111010 !
0"
b0000011101000 $
b00000000000000000000000010010111 +
#233
1"
#234
0"
#235
1"
#236
b0000000111011 !
0"
b0000011101100 $
b00010000100000001000000011100111 +
#237
1"
#238
0"
#239
1"
#240
b0000000111100 !
0"
b0000011110000 $
b01110010110100000001111111101111 +
#241
1"
#242
0"
#243
1"
#244
b0000000111101 !
0"
b0000011110100 $
b00000000000000000000000010010111 +
#245
1"
#246
0"
#247
1"
#248
b0000000111110 !
0"
b0000011111000 $
b00001111110000001000000011100111 +
#249
1"
#250
0"
#251
1"
#252
b0000000111111 !
0"
b0000011111100 $
b00010111100000000010111111101111 +
#253
1"
#254
0"
#255
1"
#256
b0000001000000 !
0"
b0000100000000 $
b00000000000000000000000010010111 +
#257
1"
#258
0"
#259
1"
#260
b0000001000001 !
0"
b0000100000100 $
b00001111000000001000000011100111 +
#261
1"
#262
0"
#263
1"
#264
b0000001000010 !
0"
b0000100001000 $
b00111000010000000010111111101111 +
#265
1"
#266
0"
#267
1"
#268
b0000001000011 !
0"
b0000100001100 $
b00000000000000000000000010010111 +
#269
1"
#270
0"
#271
1"
#272
b0000001000100 !
0"
b0000100010000 $
b00001110010000001000000011100111 +
#273
1"
#274
0"
#275
1"
#276
b0000001000101 !
0"
b0000100010100 $
b01011001000000000010111111101111 +
#277
1"
#278
0"
#279
1"
#280
b0000001000110 !
0"
b0000100011000 $
b00000000000000000000000010010111 +
#281
1"
#282
0"
#283
1"
#284
b0000001000111 !
0"
b0000100011100 $
b00001101100000001000000011100111 +
#285
1"
#286
0"
#287
1"
#288
b0000001001000 !
0"
b0000100100000 $
b01101111110000000010111111101111 +
#289
1"
#290
0"
#291
1"
#292
b0000001001001 !
0"
b0000100100100 $
b00000000000000000000000010010111 +
#293
1"
#294
0"
#295
1"
#296
b0000001001010 !
0"
b0000100101000 $
b00001100110000001000000011100111 +
#297
1"
#298
0"
#299
1"
#300
b0000001001011 !
0"
b0000100101100 $
b00001101010100000010111111101111 +
#301
1"
#302
0"
#303
1"
#304
b0000001001100 !
0"
b0000100110000 $
b00000000000000000000000010010111 +
#305
1"
#306
0"
#307
1"
#308
b0000001001101 !
0"
b0000100110100 $
b00001100000000001000000011100111 +
#309
1"
#310
0"
#311
1"
#312
b0000001001110 !
0"
b0000100111000 $
b00100000010100000010111111101111 +
#313
1"
#314
0"
#315
1"
#316
b0000001001111 !
0"
b0000100111100 $
b00000000000000000000000010010111 +
#317
1"
#318
0"
#319
1"
#320
b0000001010000 !
0"
b0000101000000 $
b00001011010000001000000011100111 +
#321
1"
#322
0"
#323
1"
#324
b0000001010001 !
0"
b0000101000100 $
b00110011110100000010111111101111 +
#325
1"
#326
0"
#327
1"
#328
b0000001010010 !
0"
b0000101001000 $
b00000000000000000000000010010111 +
#329
1"
#330
0"
#331
1"
#332
b0000001010011 !
0"
b0000101001100 $
b00001010100000001000000011100111 +
#333
1"
#334
0"
#335
1"
#336
b0000001010100 !
0"
b0000101010000 $
b01000110110100000010111111101111 +
#337
1"
#338
0"
#339
1"
#340
b0000001010101 !
0"
b0000101010100 $
b00000000000000000000000010010111 +
#341
1"
#342
0"
#343
1"
#344
b0000001010110 !
0"
b0000101011000 $
b00001001110000001000000011100111 +
#345
1"
#346
0"
#347
1"
#348
b0000001010111 !
0"
b0000101011100 $
b01100010110100000010111111101111 +
#349
1"
#350
0"
#351
1"
#352
b0000001011000 !
0"
b0000101100000 $
b00000000000000000000000010010111 +
#353
1"
#354
0"
#355
1"
#356
b0000001011001 !
0"
b0000101100100 $
b00001001000000001000000011100111 +
#357
1"
#358
0"
#359
1"
#360
b0000001011010 !
0"
b0000101101000 $
b01110110000100000010111111101111 +
#361
1"
#362
0"
#363
1"
#364
b0000001011011 !
0"
b0000101101100 $
b00000000000000000000000010010111 +
#365
1"
#366
0"
#367
1"
#368
b0000001011100 !
0"
b0000101110000 $
b00001000010000001000000011100111 +
#369
1"
#370
0"
#371
1"
#372
b0000001011101 !
0"
b0000101110100 $
b00010010010000000011111111101111 +
#373
1"
#374
0"
#375
1"
#376
b0000001011110 !
0"
b0000101111000 $
b00000000000000000000000010010111 +
#377
1"
#378
0"
#379
1"
#380
b0000001011111 !
0"
b0000101111100 $
b00000111100000001000000011100111 +
#381
1"
#382
0"
#383
1"
#384
b0000001100000 !
0"
b0000110000000 $
b00011000000000000011111111101111 +
#385
1"
#386
0"
#387
1"
#388
b0000001100001 !
0"
b0000110000100 $
b00000000000000000000000010010111 +
#389
1"
#390
0"
#391
1"
#392
b0000001100010 !
0"
b0000110001000 $
b00000110110000001000000011100111 +
#393
1"
#394
0"
#395
1"
#396
b0000001100011 !
0"
b0000110001100 $
b00100001100000000011111111101111 +
#397
1"
#398
0"
#399
1"
#400
b0000001100100 !
0"
b0000110010000 $
b00000000000000000000000010010111 +
#401
1"
#402
0"
#403
1"
#404
b0000001100101 !
0"
b0000110010100 $
b00000110000000001000000011100111 +
#405
1"
#406
0"
#407
1"
#408
b0000001100110 !
0"
b0000110011000 $
b00101000000000000011111111101111 +
#409
1"
#410
0"
#411
1"
#412
b0000001100111 !
0"
b0000110011100 $
b00000000000000000000000010010111 +
#413
1"
#414
0"
#415
1"
#416
b0000001101000 !
0"
b0000110100000 $
b00000101010000001000000011100111 +
#417
1"
#418
0"
#419
1"
#420
b0000001101001 !
0"
b0000110100100 $
b00110100110000000011111111101111 +
#421
1"
#422
0"
#423
1"
#424
b0000001101010 !
0"
b0000110101000 $
b00000000000000000000000010010111 +
#425
1"
#426
0"
#427
1"
#428
b0000001101011 !
0"
b0000110101100 $
b00000100100000001000000011100111 +
#429
1"
#430
0"
#431
1"
#432
b0000001101100 !
0"
b0000110110000 $
b01001100110000000011111111101111 +
#433
1"
#434
0"
#435
1"
#436
b0000001101101 !
0"
b0000110110100 $
b00000000000000000000000010010111 +
#437
1"
#438
0"
#439
1"
#440
b0000001101110 !
0"
b0000110111000 $
b00000011110000001000000011100111 +
#441
1"
#442
0"
#443
1"
#444
b0000001101111 !
0"
b0000110111100 $
b01111100000000000011111111101111 +
#445
1"
#446
0"
#447
1"
#448
b0000001110000 !
0"
b0000111000000 $
b00000000000000000000000010010111 +
#449
1"
#450
0"
#451
1"
#452
b0000001110001 !
0"
b0000111000100 $
b00000011000000001000000011100111 +
#453
1"
#454
0"
#455
1"
#456
b0000001110010 !
0"
b0000111001000 $
b01100011010000000011111111101111 +
#457
1"
#458
0"
#459
1"
#460
b0000001110011 !
0"
b0000111001100 $
b00000000000000000000000010010111 +
#461
1"
#462
0"
#463
1"
#464
b0000001110100 !
0"
b0000111010000 $
b00000010010000001000000011100111 +
#465
1"
#466
0"
#467
1"
#468
b0000001110101 !
0"
b0000111010100 $
b00010100010100000011111111101111 +
#469
1"
#470
0"
#471
1"
#472
b0000001110110 !
0"
b0000111011000 $
b00000000000000000000000010010111 +
#473
1"
#474
0"
#475
1"
#476
b0000001110111 !
0"
b0000111011100 $
b00000001100000001000000011100111 +
#477
1"
#478
0"
#479
1"
#480
b0000001111000 !
0"
b0000111100000 $
b00110101000100000011111111101111 +
#481
1"
#482
0"
#483
1"
#484
b0000001111001 !
0"
b0000111100100 $
b00000000000000000000000010010111 +
#485
1"
#486
0"
#487
1"
#488
b0000001111010 !
0"
b0000111101000 $
b00000000110000001000000011100111 +
#489
1"
#490
0"
#491
1"
#492
b0000001111011 !
0"
b0000111101100 $
b11100011100111111111000001101111 +
#493
1"
#494
0"
#495
1"
#496
b0000001111100 !
0"
b0000111110000 $
b00000000000010000010011010000011 +
#497
1"
#498
0"
#499
1"
#500
b0000001111101 !
0"
b0000111110100 $
b00000000000101101111011010010011 +
#501
1"
#502
0"
#503
1"
#504
b0000001111110 !
0"
b0000111111000 $
b11111110000001101001110011100011 +
#505
1"
#506
0"
#507
1"
#508
b0000001111111 !
0"
b0000111111100 $
b00000000000101110000011100010011 +
#509
1"
#510
0"
#511
1"
#512
b0000010000000 !
0"
b0001000000000 $
b00000000111001011010000000100011 +
#513
1"
#514
0"
#515
1"
#516
b0000010000001 !
0"
b0001000000100 $
b00000000000000001000000001100111 +
#517
1"
#518
0"
#519
1"
#520
b0000010000010 !
0"
b0001000001000 $
b00000000000101010001010100010011 +
#521
1"
#522
0"
#523
1"
#524
b0000010000011 !
0"
b0001000001100 $
b00000000000101010000010100010011 +
#525
1"
#526
0"
#527
1"
#528
b0000010000100 !
0"
b0001000010000 $
b00000000101001100010000000100011 +
#529
1"
#530
0"
#531
1"
#532
b0000010000101 !
0"
b0001000010100 $
b00000000000000001000000001100111 +
#533
1"
#534
0"
#535
1"
#536
b0000010000110 !
0"
b0001000011000 $
b11111111111100000000011110010011 +
#537
1"
#538
0"
#539
1"
#540
b0000010000111 !
0"
b0001000011100 $
b00000000111101011010000000100011 +
#541
1"
#542
0"
#543
1"
#544
b0000010001000 !
0"
b0001000100000 $
b00000000000011111000000001100111 +
#545
1"
#546
0"
#547
1"
#548
b0000010001001 !
0"
b0001000100100 $
b00000000000000000000010100010011 +
#549
1"
#550
0"
#551
1"
#552
b0000010001010 !
0"
b0001000101000 $
b00000000101001100010000000100011 +
#553
1"
#554
0"
#555
1"
#556
b0000010001011 !
0"
b0001000101100 $
b00000000000000000000000010010011 +
#557
1"
#558
0"
#559
1"
#560
b0000010001100 !
0"
b0001000110000 $
b00000000000000000000000100010011 +
#561
1"
#562
0"
#563
1"
#564
b0000010001101 !
0"
b0001000110100 $
b00000000001000001000111100110011 +
#565
1"
#566
0"
#567
1"
#568
b0000010001110 !
0"
b0001000111000 $
b00000000000000000000111010010011 +
#569
1"
#570
0"
#571
1"
#572
b0000010001111 !
0"
b0001000111100 $
b00000000001000000000000110010011 +
#573
1"
#574
0"
#575
1"
#576
b0000010010000 !
0"
b0001001000000 $
b11111101110111110001110011100011 +
#577
1"
#578
0"
#579
1"
#580
b0000010010001 !
0"
b0001001000100 $
b00000000000000000000000010010111 +
#581
1"
#582
0"
#583
1"
#584
b0000010010010 !
0"
b0001001001000 $
b11111100010000001000000011100111 +
#585
1"
#586
0"
#587
1"
#588
b0000010010011 !
0"
b0001001001100 $
b00000000000100000000000010010011 +
#589
1"
#590
0"
#591
1"
#592
b0000010010100 !
0"
b0001001010000 $
b00000000000100000000000100010011 +
#593
1"
#594
0"
#595
1"
#596
b0000010010101 !
0"
b0001001010100 $
b00000000001000001000111100110011 +
#597
1"
#598
0"
#599
1"
#600
b0000010010110 !
0"
b0001001011000 $
b00000000001000000000111010010011 +
#601
1"
#602
0"
#603
1"
#604
b0000010010111 !
0"
b0001001011100 $
b00000000001100000000000110010011 +
#605
1"
#606
0"
#607
1"
#608
b0000010011000 !
0"
b0001001100000 $
b11111011110111110001110011100011 +
#609
1"
#610
0"
#611
1"
#612
b0000010011001 !
0"
b0001001100100 $
b00000000000000000000000010010111 +
#613
1"
#614
0"
#615
1"
#616
b0000010011010 !
0"
b0001001101000 $
b11111010010000001000000011100111 +
#617
1"
#618
0"
#619
1"
#620
b0000010011011 !
0"
b0001001101100 $
b00000000001100000000000010010011 +
#621
1"
#622
0"
#623
1"
#624
b0000010011100 !
0"
b0001001110000 $
b00000000011100000000000100010011 +
#625
1"
#626
0"
#627
1"
#628
b0000010011101 !
0"
b0001001110100 $
b00000000001000001000111100110011 +
#629
1"
#630
0"
#631
1"
#632
b0000010011110 !
0"
b0001001111000 $
b00000000101000000000111010010011 +
#633
1"
#634
0"
#635
1"
#636
b0000010011111 !
0"
b0001001111100 $
b00000000010000000000000110010011 +
#637
1"
#638
0"
#639
1"
#640
b0000010100000 !
0"
b0001010000000 $
b11111001110111110001110011100011 +
#641
1"
#642
0"
#643
1"
#644
b0000010100001 !
0"
b0001010000100 $
b00000000000000000000000010010111 +
#645
1"
#646
0"
#647
1"
#648
b0000010100010 !
0"
b0001010001000 $
b11111000010000001000000011100111 +
#649
1"
#650
0"
#651
1"
#652
b0000010100011 !
0"
b0001010001100 $
b00000000000000000000000010010011 +
#653
1"
#654
0"
#655
1"
#656
b0000010100100 !
0"
b0001010010000 $
b11111111111111111000000100110111 +
#657
1"
#658
0"
#659
1"
#660
b0000010100101 !
0"
b0001010010100 $
b00000000001000001000111100110011 +
#661
1"
#662
0"
#663
1"
#664
b0000010100110 !
0"
b0001010011000 $
b11111111111111111000111010110111 +
#665
1"
#666
0"
#667
1"
#668
b0000010100111 !
0"
b0001010011100 $
b00000000010100000000000110010011 +
#669
1"
#670
0"
#671
1"
#672
b0000010101000 !
0"
b0001010100000 $
b11110111110111110001110011100011 +
#673
1"
#674
0"
#675
1"
#676
b0000010101001 !
0"
b0001010100100 $
b00000000000000000000000010010111 +
#677
1"
#678
0"
#679
1"
#680
b0000010101010 !
0"
b0001010101000 $
b11110110010000001000000011100111 +
#681
1"
#682
0"
#683
1"
#684
b0000010101011 !
0"
b0001010101100 $
b10000000000000000000000010110111 +
#685
1"
#686
0"
#687
1"
#688
b0000010101100 !
0"
b0001010110000 $
b00000000000000000000000100010011 +
#689
1"
#690
0"
#691
1"
#692
b0000010101101 !
0"
b0001010110100 $
b00000000001000001000111100110011 +
#693
1"
#694
0"
#695
1"
#696
b0000010101110 !
0"
b0001010111000 $
b10000000000000000000111010110111 +
#697
1"
#698
0"
#699
1"
#700
b0000010101111 !
0"
b0001010111100 $
b00000000011000000000000110010011 +
#701
1"
#702
0"
#703
1"
#704
b0000010110000 !
0"
b0001011000000 $
b11110101110111110001110011100011 +
#705
1"
#706
0"
#707
1"
#708
b0000010110001 !
0"
b0001011000100 $
b00000000000000000000000010010111 +
#709
1"
#710
0"
#711
1"
#712
b0000010110010 !
0"
b0001011001000 $
b11110100010000001000000011100111 +
#713
1"
#714
0"
#715
1"
#716
b0000010110011 !
0"
b0001011001100 $
b10000000000000000000000010110111 +
#717
1"
#718
0"
#719
1"
#720
b0000010110100 !
0"
b0001011010000 $
b11111111111111111000000100110111 +
#721
1"
#722
0"
#723
1"
#724
b0000010110101 !
0"
b0001011010100 $
b00000000001000001000111100110011 +
#725
1"
#726
0"
#727
1"
#728
b0000010110110 !
0"
b0001011011000 $
b01111111111111111000111010110111 +
#729
1"
#730
0"
#731
1"
#732
b0000010110111 !
0"
b0001011011100 $
b00000000011100000000000110010011 +
#733
1"
#734
0"
#735
1"
#736
b0000010111000 !
0"
b0001011100000 $
b11110011110111110001110011100011 +
#737
1"
#738
0"
#739
1"
#740
b0000010111001 !
0"
b0001011100100 $
b00000000000000000000000010010111 +
#741
1"
#742
0"
#743
1"
#744
b0000010111010 !
0"
b0001011101000 $
b11110010010000001000000011100111 +
#745
1"
#746
0"
#747
1"
#748
b0000010111011 !
0"
b0001011101100 $
b00000000000000000000000010010011 +
#749
1"
#750
0"
#751
1"
#752
b0000010111100 !
0"
b0001011110000 $
b00000000000000001000000100110111 +
#753
1"
#754
0"
#755
1"
#756
b0000010111101 !
0"
b0001011110100 $
b11111111111100010000000100010011 +
#757
1"
#758
0"
#759
1"
#760
b0000010111110 !
0"
b0001011111000 $
b00000000001000001000111100110011 +
#761
1"
#762
0"
#763
1"
#764
b0000010111111 !
0"
b0001011111100 $
b00000000000000001000111010110111 +
#765
1"
#766
0"
#767
1"
#768
b0000011000000 !
0"
b0001100000000 $
b11111111111111101000111010010011 +
#769
1"
#770
0"
#771
1"
#772
b0000011000001 !
0"
b0001100000100 $
b00000000100000000000000110010011 +
#773
1"
#774
0"
#775
1"
#776
b0000011000010 !
0"
b0001100001000 $
b11110001110111110001100011100011 +
#777
1"
#778
0"
#779
1"
#780
b0000011000011 !
0"
b0001100001100 $
b00000000000000000000000010010111 +
#781
1"
#782
0"
#783
1"
#784
b0000011000100 !
0"
b0001100010000 $
b11101111110000001000000011100111 +
#785
1"
#786
0"
#787
1"
#788
b0000011000101 !
0"
b0001100010100 $
b10000000000000000000000010110111 +
#789
1"
#790
0"
#791
1"
#792
b0000011000110 !
0"
b0001100011000 $
b11111111111100001000000010010011 +
#793
1"
#794
0"
#795
1"
#796
b0000011000111 !
0"
b0001100011100 $
b00000000000000000000000100010011 +
#797
1"
#798
0"
#799
1"
#800
b0000011001000 !
0"
b0001100100000 $
b00000000001000001000111100110011 +
#801
1"
#802
0"
#803
1"
#804
b0000011001001 !
0"
b0001100100100 $
b10000000000000000000111010110111 +
#805
1"
#806
0"
#807
1"
#808
b0000011001010 !
0"
b0001100101000 $
b11111111111111101000111010010011 +
#809
1"
#810
0"
#811
1"
#812
b0000011001011 !
0"
b0001100101100 $
b00000000100100000000000110010011 +
#813
1"
#814
0"
#815
1"
#816
b0000011001100 !
0"
b0001100110000 $
b11101111110111110001010011100011 +
#817
1"
#818
0"
#819
1"
#820
b0000011001101 !
0"
b0001100110100 $
b00000000000000000000000010010111 +
#821
1"
#822
0"
#823
1"
#824
b0000011001110 !
0"
b0001100111000 $
b11101101010000001000000011100111 +
#825
1"
#826
0"
#827
1"
#828
b0000011001111 !
0"
b0001100111100 $
b10000000000000000000000010110111 +
#829
1"
#830
0"
#831
1"
#832
b0000011010000 !
0"
b0001101000000 $
b11111111111100001000000010010011 +
#833
1"
#834
0"
#835
1"
#836
b0000011010001 !
0"
b0001101000100 $
b00000000000000001000000100110111 +
#837
1"
#838
0"
#839
1"
#840
b0000011010010 !
0"
b0001101001000 $
b11111111111100010000000100010011 +
#841
1"
#842
0"
#843
1"
#844
b0000011010011 !
0"
b0001101001100 $
b00000000001000001000111100110011 +
#845
1"
#846
0"
#847
1"
#848
b0000011010100 !
0"
b0001101010000 $
b10000000000000001000111010110111 +
#849
1"
#850
0"
#851
1"
#852
b0000011010101 !
0"
b0001101010100 $
b11111111111011101000111010010011 +
#853
1"
#854
0"
#855
1"
#856
b0000011010110 !
0"
b0001101011000 $
b00000000101000000000000110010011 +
#857
1"
#858
0"
#859
1"
#860
b0000011010111 !
0"
b0001101011100 $
b11101011110111110001111011100011 +
#861
1"
#862
0"
#863
1"
#864
b0000011011000 !
0"
b0001101100000 $
b00000000000000000000000010010111 +
#865
1"
#866
0"
#867
1"
#868
b0000011011001 !
0"
b0001101100100 $
b11101010100000001000000011100111 +
#869
1"
#870
0"
#871
1"
#872
b0000011011010 !
0"
b0001101101000 $
b10000000000000000000000010110111 +
#873
1"
#874
0"
#875
1"
#876
b0000011011011 !
0"
b0001101101100 $
b00000000000000001000000100110111 +
#877
1"
#878
0"
#879
1"
#880
b0000011011100 !
0"
b0001101110000 $
b11111111111100010000000100010011 +
#881
1"
#882
0"
#883
1"
#884
b0000011011101 !
0"
b0001101110100 $
b00000000001000001000111100110011 +
#885
1"
#886
0"
#887
1"
#888
b0000011011110 !
0"
b0001101111000 $
b10000000000000001000111010110111 +
#889
1"
#890
0"
#891
1"
#892
b0000011011111 !
0"
b0001101111100 $
b11111111111111101000111010010011 +
#893
1"
#894
0"
#895
1"
#896
b0000011100000 !
0"
b0001110000000 $
b00000000101100000000000110010011 +
#897
1"
#898
0"
#899
1"
#900
b0000011100001 !
0"
b0001110000100 $
b11101001110111110001101011100011 +
#901
1"
#902
0"
#903
1"
#904
b0000011100010 !
0"
b0001110001000 $
b00000000000000000000000010010111 +
#905
1"
#906
0"
#907
1"
#908
b0000011100011 !
0"
b0001110001100 $
b11101000000000001000000011100111 +
#909
1"
#910
0"
#911
1"
#912
b0000011100100 !
0"
b0001110010000 $
b10000000000000000000000010110111 +
#913
1"
#914
0"
#915
1"
#916
b0000011100101 !
0"
b0001110010100 $
b11111111111100001000000010010011 +
#917
1"
#918
0"
#919
1"
#920
b0000011100110 !
0"
b0001110011000 $
b11111111111111111000000100110111 +
#921
1"
#922
0"
#923
1"
#924
b0000011100111 !
0"
b0001110011100 $
b00000000001000001000111100110011 +
#925
1"
#926
0"
#927
1"
#928
b0000011101000 !
0"
b0001110100000 $
b01111111111111111000111010110111 +
#929
1"
#930
0"
#931
1"
#932
b0000011101001 !
0"
b0001110100100 $
b11111111111111101000111010010011 +
#933
1"
#934
0"
#935
1"
#936
b0000011101010 !
0"
b0001110101000 $
b00000000110000000000000110010011 +
#937
1"
#938
0"
#939
1"
#940
b0000011101011 !
0"
b0001110101100 $
b11100111110111110001011011100011 +
#941
1"
#942
0"
#943
1"
#944
b0000011101100 !
0"
b0001110110000 $
b00000000000000000000000010010111 +
#945
1"
#946
0"
#947
1"
#948
b0000011101101 !
0"
b0001110110100 $
b11100101100000001000000011100111 +
#949
1"
#950
0"
#951
1"
#952
b0000011101110 !
0"
b0001110111000 $
b00000000000000000000000010010011 +
#953
1"
#954
0"
#955
1"
#956
b0000011101111 !
0"
b0001110111100 $
b11111111111100000000000100010011 +
#957
1"
#958
0"
#959
1"
#960
b0000011110000 !
0"
b0001111000000 $
b00000000001000001000111100110011 +
#961
1"
#962
0"
#963
1"
#964
b0000011110001 !
0"
b0001111000100 $
b11111111111100000000111010010011 +
#965
1"
#966
0"
#967
1"
#968
b0000011110010 !
0"
b0001111001000 $
b00000000110100000000000110010011 +
#969
1"
#970
0"
#971
1"
#972
b0000011110011 !
0"
b0001111001100 $
b11100101110111110001011011100011 +
#973
1"
#974
0"
#975
1"
#976
b0000011110100 !
0"
b0001111010000 $
b00000000000000000000000010010111 +
#977
1"
#978
0"
#979
1"
#980
b0000011110101 !
0"
b0001111010100 $
b11100011100000001000000011100111 +
#981
1"
#982
0"
#983
1"
#984
b0000011110110 !
0"
b0001111011000 $
b11111111111100000000000010010011 +
#985
1"
#986
0"
#987
1"
#988
b0000011110111 !
0"
b0001111011100 $
b00000000000100000000000100010011 +
#989
1"
#990
0"
#991
1"
#992
b0000011111000 !
0"
b0001111100000 $
b00000000001000001000111100110011 +
#993
1"
#994
0"
#995
1"
#996
b0000011111001 !
0"
b0001111100100 $
b00000000000000000000111010010011 +
#997
1"
#998
0"
#999
1"
#1000
b0000011111010 !
0"
b0001111101000 $
b00000000111000000000000110010011 +
#1001
1"
#1002
0"
#1003
1"
#1004
b0000011111011 !
0"
b0001111101100 $
b11100011110111110001011011100011 +
#1005
1"
#1006
0"
#1007
1"
#1008
b0000011111100 !
0"
b0001111110000 $
b00000000000000000000000010010111 +
#1009
1"
#1010
0"
#1011
1"
#1012
b0000011111101 !
0"
b0001111110100 $
b11100001100000001000000011100111 +
#1013
1"
#1014
0"
#1015
1"
#1016
b0000011111110 !
0"
b0001111111000 $
b11111111111100000000000010010011 +
#1017
1"
#1018
0"
#1019
1"
#1020
b0000011111111 !
0"
b0001111111100 $
b11111111111100000000000100010011 +
#1021
1"
#1022
0"
#1023
1"
#1024
b0000100000000 !
0"
b0010000000000 $
b00000000001000001000111100110011 +
#1025
1"
#1026
0"
#1027
1"
#1028
b0000100000001 !
0"
b0010000000100 $
b11111111111000000000111010010011 +
#1029
1"
